{
    "name": "ItsTheConnection.CharacterControllers.Runtime",
    "rootNamespace": "",
    "references": [
        "Unity.Splines",
        "Unity.Mathematics"
    ],
    "includePlatforms": [],
    "excludePlatforms": [],
    "allowUnsafeCode": false,
    "overrideReferences": false,
    "precompiledReferences": [],
    "autoReferenced": true,
    "defineConstraints": [],
    "versionDefines": [
        {
            "name": "com.unity.splines",
            "expression": "2.4.0",
            "define": "SPLINES"
        },
        {
            "name": "com.unity.mathematics",
            "expression": "1.2.6",
            "define": "MATH"
        }
    ],
    "noEngineReferences": false
}